<?xml version="1.0" encoding="utf-8"?>
<!-- Generator: Adobe Illustrator 16.0.0, SVG Export Plug-In . SVG Version: 6.00 Build 0)  -->
<!DOCTYPE svg PUBLIC "-//W3C//DTD SVG 1.1//EN" "http://www.w3.org/Graphics/SVG/1.1/DTD/svg11.dtd">
<svg version="1.1" id="Layer_1" xmlns="http://www.w3.org/2000/svg" xmlns:xlink="http://www.w3.org/1999/xlink" x="0px" y="0px"
	 width="46px" height="46px" viewBox="0 0 46 46" enable-background="new 0 0 46 46" xml:space="preserve">
<g>
	<path fill="#3E3E3E" d="M-58.828,28.22V17.7H-42.3V1.172h10.601V17.7h16.527V28.22h-16.527v16.608H-42.3V28.22H-58.828z"/>
</g>
<g>
	<path fill="#4D4D4D" d="M61.172,17.667h43.656v10.5H61.172V17.667z"/>
</g>
<g>
	<path fill="#FFFFFF" d="M1.172,17.667h43.656v10.5H1.172V17.667z"/>
</g>
</svg>
